code/ex4/nn_simulation.vcd
$date
	Sat Jan 17 20:19:46 2026
$end
$version
	Icarus Verilog
$end
$timescale
	1ps
$end
$scope module tb_nn $end
$var wire 3 ! zero_fsm_stage [2:0] $end
$var wire 1 " total_zero $end
$var wire 1 # total_ovf $end
$var wire 3 $ ovf_fsm_stage [2:0] $end
$var wire 32 % final_output [31:0] $end
$var reg 1 & clk $end
$var reg 1 ' enable $end
$var reg 32 ( expected_output [31:0] $end
$var reg 32 ) input_1 [31:0] $end
$var reg 32 * input_2 [31:0] $end
$var reg 1 + resetn $end
$var integer 32 , i [31:0] $end
$var integer 32 - pass_count [31:0] $end
$var integer 32 . test_count [31:0] $end
$scope function nn_model $end
$var reg 32 / bias1 [31:0] $end
$var reg 32 0 bias2 [31:0] $end
$var reg 32 1 bias3 [31:0] $end
$var reg 32 2 input_1 [31:0] $end
$var reg 32 3 input_2 [31:0] $end
$var reg 32 4 inter1 [31:0] $end
$var reg 32 5 inter2 [31:0] $end
$var reg 64 6 mac1 [63:0] $end
$var reg 64 7 mac2 [63:0] $end
$var reg 64 8 mac3 [63:0] $end
$var reg 64 9 mac4 [63:0] $end
$var reg 64 : mul1 [63:0] $end
$var reg 64 ; mul2 [63:0] $end
$var reg 64 < mul3 [63:0] $end
$var reg 64 = mul4 [63:0] $end
$var reg 1 > ovf_mac1 $end
$var reg 1 ? ovf_mac2 $end
$var reg 1 @ ovf_mac3 $end
$var reg 1 A ovf_mac4 $end
$var reg 1 B ovf_mul1 $end
$var reg 1 C ovf_mul2 $end
$var reg 1 D ovf_mul3 $end
$var reg 1 E ovf_mul4 $end
$var reg 1 F ovf_sb $end
$var reg 64 G result [63:0] $end
$var reg 32 H shift_bias1 [31:0] $end
$var reg 32 I shift_bias2 [31:0] $end
$var reg 32 J shift_bias3 [31:0] $end
$var reg 32 K weight1 [31:0] $end
$var reg 32 L weight2 [31:0] $end
$var reg 32 M weight3 [31:0] $end
$var reg 32 N weight4 [31:0] $end
$var integer 32 O addr [31:0] $end
$upscope $end
$scope module dut $end
$var wire 1 & clk $end
$var wire 1 ' enable $end
$var wire 32 P input_1 [31:0] $end
$var wire 32 Q input_2 [31:0] $end
$var wire 1 + resetn $end
$var wire 32 R rom_dout2 [31:0] $end
$var wire 32 S rom_dout1 [31:0] $end
$var wire 32 T rf_rd4 [31:0] $end
$var wire 32 U rf_rd3 [31:0] $end
$var wire 32 V rf_rd2 [31:0] $end
$var wire 32 W rf_rd1 [31:0] $end
$var wire 32 X mac2_res [31:0] $end
$var wire 32 Y mac1_res [31:0] $end
$var wire 1 Z m2_z_mul $end
$var wire 1 [ m2_z_add $end
$var wire 1 \ m2_o_mul $end
$var wire 1 ] m2_o_add $end
$var wire 1 ^ m1_z_mul $end
$var wire 1 _ m1_z_add $end
$var wire 1 ` m1_o_mul $end
$var wire 1 a m1_o_add $end
$var wire 1 b alu2_z $end
$var wire 32 c alu2_res [31:0] $end
$var wire 1 d alu2_o $end
$var wire 1 e alu1_z $end
$var wire 32 f alu1_res [31:0] $end
$var wire 1 g alu1_o $end
$var reg 4 h alu1_op [3:0] $end
$var reg 32 i alu1_op1 [31:0] $end
$var reg 32 j alu1_op2 [31:0] $end
$var reg 4 k alu2_op [3:0] $end
$var reg 32 l alu2_op1 [31:0] $end
$var reg 32 m alu2_op2 [31:0] $end
$var reg 3 n current_state [2:0] $end
$var reg 32 o final_output [31:0] $end
$var reg 32 p inter_1 [31:0] $end
$var reg 32 q inter_2 [31:0] $end
$var reg 32 r inter_3 [31:0] $end
$var reg 32 s inter_4 [31:0] $end
$var reg 32 t inter_5 [31:0] $end
$var reg 8 u load_counter [7:0] $end
$var reg 32 v mac1_op1 [31:0] $end
$var reg 32 w mac1_op2 [31:0] $end
$var reg 32 x mac1_op3 [31:0] $end
$var reg 32 y mac2_op1 [31:0] $end
$var reg 32 z mac2_op2 [31:0] $end
$var reg 32 { mac2_op3 [31:0] $end
$var reg 3 | next_state [2:0] $end
$var reg 3 } ovf_fsm_stage [2:0] $end
$var reg 4 ~ readReg1 [3:0] $end
$var reg 4 !" readReg2 [3:0] $end
$var reg 4 "" readReg3 [3:0] $end
$var reg 4 #" readReg4 [3:0] $end
$var reg 1 $" rf_write $end
$var reg 8 %" rom_addr1 [7:0] $end
$var reg 8 &" rom_addr2 [7:0] $end
$var reg 1 # total_ovf $end
$var reg 1 " total_zero $end
$var reg 32 '" writeData1 [31:0] $end
$var reg 32 (" writeData2 [31:0] $end
$var reg 4 )" writeReg1 [3:0] $end
$var reg 4 *" writeReg2 [3:0] $end
$var reg 3 +" zero_fsm_stage [2:0] $end
$scope module alu1 $end
$var wire 4 ," alu_op [3:0] $end
$var wire 32 -" op1 [31:0] $end
$var wire 32 ." op2 [31:0] $end
$var wire 1 e zero $end
$var reg 1 g ovf $end
$var reg 32 /" result [31:0] $end
$upscope $end
$scope module alu2 $end
$var wire 4 0" alu_op [3:0] $end
$var wire 32 1" op1 [31:0] $end
$var wire 32 2" op2 [31:0] $end
$var wire 1 b zero $end
$var reg 1 d ovf $end
$var reg 32 3" result [31:0] $end
$upscope $end
$scope module mac1 $end
$var wire 32 4" op1 [31:0] $end
$var wire 32 5" op2 [31:0] $end
$var wire 32 6" op3 [31:0] $end
$var wire 1 ^ zero_mul $end
$var wire 1 _ zero_add $end
$var wire 32 7" total_result [31:0] $end
$var wire 1 ` ovf_mul $end
$var wire 1 a ovf_add $end
$var wire 32 8" mul_res [31:0] $end
$scope module alu_add $end
$var wire 4 9" alu_op [3:0] $end
$var wire 32 :" op2 [31:0] $end
$var wire 1 _ zero $end
$var wire 32 ;" op1 [31:0] $end
$var reg 1 a ovf $end
$var reg 32 <" result [31:0] $end
$upscope $end
$scope module alu_mul $end
$var wire 4 =" alu_op [3:0] $end
$var wire 32 >" op1 [31:0] $end
$var wire 32 ?" op2 [31:0] $end
$var wire 1 ^ zero $end
$var reg 1 ` ovf $end
$var reg 32 @" result [31:0] $end
$upscope $end
$upscope $end
$scope module mac2 $end
$var wire 32 A" op1 [31:0] $end
$var wire 32 B" op2 [31:0] $end
$var wire 32 C" op3 [31:0] $end
$var wire 1 Z zero_mul $end
$var wire 1 [ zero_add $end
$var wire 32 D" total_result [31:0] $end
$var wire 1 \ ovf_mul $end
$var wire 1 ] ovf_add $end
$var wire 32 E" mul_res [31:0] $end
$scope module alu_add $end
$var wire 4 F" alu_op [3:0] $end
$var wire 32 G" op2 [31:0] $end
$var wire 1 [ zero $end
$var wire 32 H" op1 [31:0] $end
$var reg 1 ] ovf $end
$var reg 32 I" result [31:0] $end
$upscope $end
$scope module alu_mul $end
$var wire 4 J" alu_op [3:0] $end
$var wire 32 K" op1 [31:0] $end
$var wire 32 L" op2 [31:0] $end
$var wire 1 Z zero $end
$var reg 1 \ ovf $end
$var reg 32 M" result [31:0] $end
$upscope $end
$upscope $end
$scope module rf_inst $end
$var wire 1 & clk $end
$var wire 4 N" readReg1 [3:0] $end
$var wire 4 O" readReg2 [3:0] $end
$var wire 4 P" readReg3 [3:0] $end
$var wire 4 Q" readReg4 [3:0] $end
$var wire 1 + resetn $end
$var wire 1 $" write $end
$var wire 32 R" writeData1 [31:0] $end
$var wire 32 S" writeData2 [31:0] $end
$var wire 4 T" writeReg1 [3:0] $end
$var wire 4 U" writeReg2 [3:0] $end
$var wire 32 V" readData4 [31:0] $end
$var wire 32 W" readData3 [31:0] $end
$var wire 32 X" readData2 [31:0] $end
$var wire 32 Y" readData1 [31:0] $end
$var integer 32 Z" i [31:0] $end
$upscope $end
$scope module rom_inst $end
$var wire 8 [" addr1 [7:0] $end
$var wire 8 \" addr2 [7:0] $end
$var wire 1 & clk $end
$var reg 32 ]" dout1 [31:0] $end
$var reg 32 ^" dout2 [31:0] $end
$upscope $end
$upscope $end
$upscope $end
$enddefinitions $end
#0
$dumpvars
bx ^"
bx ]"
b0 \"
b0 ["
b10000 Z"
b0 Y"
b0 X"
b0 W"
b0 V"
b0 U"
b0 T"
b0 S"
b0 R"
b0 Q"
b0 P"
b0 O"
b0 N"
b0 M"
b0 L"
b0 K"
b110 J"
b0 I"
b0 H"
b0 G"
b100 F"
b0 E"
b0 D"
b0 C"
b0 B"
b0 A"
b0 @"
b0 ?"
b0 >"
b110 ="
b0 <"
b0 ;"
b0 :"
b100 9"
b0 8"
b0 7"
b0 6"
b0 5"
b0 4"
b0 3"
b0 2"
b0 1"
b0 0"
b0 /"
b0 ."
b0 -"
b0 ,"
b111 +"
b0 *"
b0 )"
b0 ("
b0 '"
b0 &"
b0 %"
0$"
b0 #"
b0 ""
b0 !"
b0 ~
b111 }
b0 |
b0 {
b0 z
b0 y
b0 x
b0 w
b0 v
b0 u
b0 t
b0 s
b0 r
b0 q
b0 p
b0 o
b0 n
b0 m
b0 l
b0 k
b0 j
b0 i
b0 h
0g
b0 f
1e
0d
b0 c
1b
0a
0`
1_
1^
0]
0\
1[
1Z
b0 Y
b0 X
b0 W
b0 V
b0 U
b0 T
bx S
bx R
b0 Q
b0 P
bx O
bx N
bx M
bx L
bx K
bx J
bx I
bx H
bx G
xF
xE
xD
xC
xB
xA
x@
x?
x>
bx =
bx <
bx ;
bx :
bx 9
bx 8
bx 7
bx 6
bx 5
bx 4
bx 3
bx 2
bx 1
bx 0
bx /
b0 .
b0 -
bx ,
0+
b0 *
b0 )
bx (
0'
0&
b0 %
b111 $
0#
0"
b111 !
$end
#5000
b0 R
b0 ^"
b0 S
b0 ]"
b10000 Z"
1&
#10000
0&
#15000
b10000 Z"
1&
#20000
0&
#25000
b10000 Z"
1&
#30000
0&
1+
#35000
b0 !
b0 +"
1"
b1 |
1'
1&
#40000
0&
#45000
b1100 &"
b1100 \"
b1000 %"
b1000 ["
b1 n
b1 |
0'
1&
#50000
0&
#55000
b1 ("
b1 S"
b10 '"
b10 R"
b11 *"
b11 U"
b10 )"
b10 T"
1$"
b10100 &"
b10100 \"
b10000 %"
b10000 ["
b1 u
b1 R
b1 ^"
b10 S
b10 ]"
1&
#60000
0&
#65000
b11100 &"
b11100 \"
b11000 %"
b11000 ["
b11111111111111111111111111111100 ("
b11111111111111111111111111111100 S"
b110 '"
b110 R"
b101 *"
b101 U"
b100 )"
b100 T"
1$"
b10 u
b11111111111111111111111111111100 R
b11111111111111111111111111111100 ^"
b110 S
b110 ]"
1&
#70000
0&
#75000
b100100 &"
b100100 \"
b100000 %"
b100000 ["
b11111111111111111111111111111101 ("
b11111111111111111111111111111101 S"
b101 '"
b101 R"
b111 *"
b111 U"
b110 )"
b110 T"
1$"
b11 u
b11111111111111111111111111111101 R
b11111111111111111111111111111101 ^"
b101 S
b101 ]"
1&
#80000
0&
#85000
b101100 &"
b101100 \"
b101000 %"
b101000 ["
b1010 ("
b1010 S"
b1000 '"
b1000 R"
b1001 *"
b1001 U"
b1000 )"
b1000 T"
1$"
b100 u
b1010 R
b1010 ^"
b1000 S
b1000 ]"
1&
#90000
0&
#95000
b110100 &"
b110100 \"
b110000 %"
b110000 ["
b10 ("
b10 S"
b11111111111111111111111111111011 '"
b11111111111111111111111111111011 R"
b1011 *"
b1011 U"
b1010 )"
b1010 T"
1$"
b101 u
b10 R
b10 ^"
b11111111111111111111111111111011 S
b11111111111111111111111111111011 ]"
1&
#100000
0&
#105000
b10 |
b111100 &"
b111100 \"
b111000 %"
b111000 ["
b0 ("
b0 S"
b0 '"
b0 R"
b1101 *"
b1101 U"
b1100 )"
b1100 T"
1$"
b110 u
b0 R
b0 ^"
b0 S
b0 ]"
1&
#110000
0&
#115000
b1 m
b1 2"
b10 j
b10 ."
b1 V
b1 X"
b10 W
b10 Y"
b11 |
b10 k
b10 0"
b10 h
b10 ,"
b11 !"
b11 O"
b10 ~
b10 N"
b0 &"
b0 \"
b0 %"
b0 ["
b0 *"
b0 U"
b0 )"
b0 T"
0$"
b111 u
b10 n
1&
#120000
0&
#125000
0[
b11111111111111111111111111111101 X
b11111111111111111111111111111101 D"
b11111111111111111111111111111101 I"
b11111111111111111111111111111101 {
b11111111111111111111111111111101 C"
b11111111111111111111111111111101 G"
b101 z
b101 B"
b101 L"
b11111111111111111111111111111101 T
b11111111111111111111111111111101 V"
b101 U
b101 W"
b11111111111111111111111111111100 V
b11111111111111111111111111111100 X"
b110 W
b110 Y"
0_
b11111111111111111111111111111100 Y
b11111111111111111111111111111100 7"
b11111111111111111111111111111100 <"
b100 |
b11111111111111111111111111111100 x
b11111111111111111111111111111100 6"
b11111111111111111111111111111100 :"
b110 w
b110 5"
b110 ?"
b111 #"
b111 Q"
b110 ""
b110 P"
b0 k
b0 0"
b0 m
b0 2"
b0 h
b0 ,"
b0 j
b0 ."
b101 !"
b101 O"
b100 ~
b100 N"
b11 n
1&
#130000
0&
#135000
b0 T
b0 V"
b11111111111111111111111111111011 U
b11111111111111111111111111111011 W"
b1010 V
b1010 X"
b1000 W
b1000 Y"
0[
b11111111111111111111111111011101 X
b11111111111111111111111111011101 D"
b11111111111111111111111111011101 I"
0Z
b11111111111111111111111111100010 E"
b11111111111111111111111111100010 H"
b11111111111111111111111111100010 M"
0_
b11111111111111111111111111100000 Y
b11111111111111111111111111100000 7"
b11111111111111111111111111100000 <"
0^
b11111111111111111111111111100000 8"
b11111111111111111111111111100000 ;"
b11111111111111111111111111100000 @"
b101 |
b11111111111111111111111111111101 y
b11111111111111111111111111111101 A"
b11111111111111111111111111111101 K"
b11111111111111111111111111111100 v
b11111111111111111111111111111100 4"
b11111111111111111111111111111100 >"
b11111111111111111111111111111011 {
b11111111111111111111111111111011 C"
b11111111111111111111111111111011 G"
b1010 z
b1010 B"
b1010 L"
b0 x
b0 6"
b0 :"
b1000 w
b1000 5"
b1000 ?"
b0 #"
b0 Q"
b1010 ""
b1010 P"
b1001 !"
b1001 O"
b1000 ~
b1000 N"
b11111111111111111111111111111101 s
b11111111111111111111111111111100 r
b100 n
1&
#140000
0&
#145000
1_
b0 Y
b0 7"
b0 <"
b0 U
b0 W"
b0 V
b0 X"
b10 W
b10 Y"
0e
b11111111111111111111111011110100 f
b11111111111111111111111011110100 /"
1[
b0 X
b0 D"
b0 I"
1Z
b0 E"
b0 H"
b0 M"
1^
b0 8"
b0 ;"
b0 @"
b110 |
b11 h
b11 ,"
b10 j
b10 ."
b11111111111111111111111110111101 i
b11111111111111111111111110111101 -"
b0 {
b0 C"
b0 G"
b0 z
b0 B"
b0 L"
b0 y
b0 A"
b0 K"
b0 w
b0 5"
b0 ?"
b0 v
b0 4"
b0 >"
b0 ""
b0 P"
b0 !"
b0 O"
b1011 ~
b1011 N"
b11111111111111111111111110111101 t
b101 n
1&
#150000
0&
#155000
b0 W
b0 Y"
1e
b0 f
b0 /"
b0 h
b0 ,"
b0 j
b0 ."
b0 i
b0 -"
b0 ~
b0 N"
b11111111111111111111111011110100 %
b11111111111111111111111011110100 o
b110 n
1&
#160000
0&
#165000
b0 u
1&
#170000
0&
#175000
1&
#180000
0&
#185000
1&
#190000
0&
#195000
b111111111111 *
b111111111111 Q
b111111111111 )
b111111111111 P
b1 .
b0 ,
1&
#200000
0&
#205000
b111 !
b111 +"
0"
b10 |
1'
1&
#210000
0&
#215000
b1 m
b1 2"
b10 j
b10 ."
b1 V
b1 X"
b10 W
b10 Y"
0b
b11111111111 c
b11111111111 3"
0e
b1111111111 f
b1111111111 /"
b10 k
b10 0"
b111111111111 l
b111111111111 1"
b10 h
b10 ,"
b111111111111 i
b111111111111 -"
b11 !"
b11 O"
b10 ~
b10 N"
b110 !
b110 +"
1"
b10 n
b11 |
0'
1&
#220000
0&
#225000
0[
b10011111111000 X
b10011111111000 D"
b10011111111000 I"
0Z
b10011111111011 E"
b10011111111011 H"
b10011111111011 M"
b11111111111111111111111111111101 {
b11111111111111111111111111111101 C"
b11111111111111111111111111111101 G"
b101 z
b101 B"
b101 L"
b11111111111111111111111111111101 T
b11111111111111111111111111111101 V"
b101 U
b101 W"
b11111111111111111111111111111100 V
b11111111111111111111111111111100 X"
b110 W
b110 Y"
0_
b1011111110110 Y
b1011111110110 7"
b1011111110110 <"
0^
b1011111111010 8"
b1011111111010 ;"
b1011111111010 @"
1b
b0 c
b0 3"
1e
b0 f
b0 /"
b100 |
b11111111111 y
b11111111111 A"
b11111111111 K"
b11111111111111111111111111111100 x
b11111111111111111111111111111100 6"
b11111111111111111111111111111100 :"
b110 w
b110 5"
b110 ?"
b1111111111 v
b1111111111 4"
b1111111111 >"
b111 #"
b111 Q"
b110 ""
b110 P"
b0 k
b0 0"
b0 m
b0 2"
b0 l
b0 1"
b0 h
b0 ,"
b0 j
b0 ."
b0 i
b0 -"
b101 !"
b101 O"
b100 ~
b100 N"
b11111111111 q
b1111111111 p
b11 n
1&
#230000
0&
#235000
b0 T
b0 V"
b11111111111111111111111111111011 U
b11111111111111111111111111111011 W"
b1010 V
b1010 X"
b1000 W
b1000 Y"
0[
b11000111110101011 X
b11000111110101011 D"
b11000111110101011 I"
0Z
b11000111110110000 E"
b11000111110110000 H"
b11000111110110000 M"
0_
b1011111110110000 Y
b1011111110110000 7"
b1011111110110000 <"
0^
b1011111110110000 8"
b1011111110110000 ;"
b1011111110110000 @"
b101 |
b11111111111111111111111111111011 {
b11111111111111111111111111111011 C"
b11111111111111111111111111111011 G"
b1010 z
b1010 B"
b1010 L"
b10011111111000 y
b10011111111000 A"
b10011111111000 K"
b0 x
b0 6"
b0 :"
b1000 w
b1000 5"
b1000 ?"
b1011111110110 v
b1011111110110 4"
b1011111110110 >"
b0 #"
b0 Q"
b1010 ""
b1010 P"
b1001 !"
b1001 O"
b1000 ~
b1000 N"
b10011111111000 s
b1011111110110 r
b100 n
1&
#240000
0&
#245000
1_
b0 Y
b0 7"
b0 <"
b0 U
b0 W"
b0 V
b0 X"
b10 W
b10 Y"
0e
b10010011110101101100 f
b10010011110101101100 /"
1[
b0 X
b0 D"
b0 I"
1Z
b0 E"
b0 H"
b0 M"
1^
b0 8"
b0 ;"
b0 @"
b110 |
b11 h
b11 ,"
b10 j
b10 ."
b100100111101011011 i
b100100111101011011 -"
b0 {
b0 C"
b0 G"
b0 z
b0 B"
b0 L"
b0 y
b0 A"
b0 K"
b0 w
b0 5"
b0 ?"
b0 v
b0 4"
b0 >"
b0 ""
b0 P"
b0 !"
b0 O"
b1011 ~
b1011 N"
b100100111101011011 t
b101 n
1&
#250000
0&
#255000
b0 W
b0 Y"
1e
b0 f
b0 /"
b0 h
b0 ,"
b0 j
b0 ."
b0 i
b0 -"
b0 ~
b0 N"
b10010011110101101100 %
b10010011110101101100 o
b110 n
1&
#260000
0&
#265000
1&
#270000
0&
#275000
1&
#280000
0&
#285000
1&
#290000
0&
#295000
1&
#300000
0&
#305000
1&
#310000
0&
#315000
b10 .
b1 ,
b1 -
b10010011110101101100 (
0F
b10010011110101101100 G
b10 J
0A
b100100111101011011 9
0@
b1011111110101011 8
0E
b11000111110110000 =
0D
b1011111110110000 <
b11111111111111111111111111111011 1
b1010 N
b1000 M
0?
b10011111111000 7
0C
b10011111111011 ;
0>
b1011111110110 6
0B
b1011111111010 :
b11111111111111111111111111111101 0
b101 L
b11111111111111111111111111111100 /
b110 K
b11111111111 5
b1111111111 4
b1 I
b10 H
b110000 O
b111111111111 2
b111111111111 3
1&
#320000
0&
#325000
b111 !
b111 +"
0"
b10 |
1'
1&
#330000
0&
#335000
b1 m
b1 2"
b10 j
b10 ."
b1 V
b1 X"
b10 W
b10 Y"
0b
b11111111111 c
b11111111111 3"
0e
b1111111111 f
b1111111111 /"
b10 k
b10 0"
b111111111111 l
b111111111111 1"
b10 h
b10 ,"
b111111111111 i
b111111111111 -"
b11 !"
b11 O"
b10 ~
b10 N"
b110 !
b110 +"
1"
b10 n
b11 |
0'
1&
#340000
0&
#345000
0[
b10011111111000 X
b10011111111000 D"
b10011111111000 I"
0Z
b10011111111011 E"
b10011111111011 H"
b10011111111011 M"
b11111111111111111111111111111101 {
b11111111111111111111111111111101 C"
b11111111111111111111111111111101 G"
b101 z
b101 B"
b101 L"
b11111111111111111111111111111101 T
b11111111111111111111111111111101 V"
b101 U
b101 W"
b11111111111111111111111111111100 V
b11111111111111111111111111111100 X"
b110 W
b110 Y"
0_
b1011111110110 Y
b1011111110110 7"
b1011111110110 <"
0^
b1011111111010 8"
b1011111111010 ;"
b1011111111010 @"
1b
b0 c
b0 3"
1e
b0 f
b0 /"
b100 |
b11111111111 y
b11111111111 A"
b11111111111 K"
b11111111111111111111111111111100 x
b11111111111111111111111111111100 6"
b11111111111111111111111111111100 :"
b110 w
b110 5"
b110 ?"
b1111111111 v
b1111111111 4"
b1111111111 >"
b111 #"
b111 Q"
b110 ""
b110 P"
b0 k
b0 0"
b0 m
b0 2"
b0 l
b0 1"
b0 h
b0 ,"
b0 j
b0 ."
b0 i
b0 -"
b101 !"
b101 O"
b100 ~
b100 N"
b11 n
1&
#350000
0&
#355000
b0 T
b0 V"
b11111111111111111111111111111011 U
b11111111111111111111111111111011 W"
b1010 V
b1010 X"
b1000 W
b1000 Y"
0[
b11000111110101011 X
b11000111110101011 D"
b11000111110101011 I"
0Z
b11000111110110000 E"
b11000111110110000 H"
b11000111110110000 M"
0_
b1011111110110000 Y
b1011111110110000 7"
b1011111110110000 <"
0^
b1011111110110000 8"
b1011111110110000 ;"
b1011111110110000 @"
b101 |
b11111111111111111111111111111011 {
b11111111111111111111111111111011 C"
b11111111111111111111111111111011 G"
b1010 z
b1010 B"
b1010 L"
b10011111111000 y
b10011111111000 A"
b10011111111000 K"
b0 x
b0 6"
b0 :"
b1000 w
b1000 5"
b1000 ?"
b1011111110110 v
b1011111110110 4"
b1011111110110 >"
b0 #"
b0 Q"
b1010 ""
b1010 P"
b1001 !"
b1001 O"
b1000 ~
b1000 N"
b100 n
1&
#360000
0&
#365000
1_
b0 Y
b0 7"
b0 <"
b0 U
b0 W"
b0 V
b0 X"
b10 W
b10 Y"
0e
b10010011110101101100 f
b10010011110101101100 /"
1[
b0 X
b0 D"
b0 I"
1Z
b0 E"
b0 H"
b0 M"
1^
b0 8"
b0 ;"
b0 @"
b110 |
b11 h
b11 ,"
b10 j
b10 ."
b100100111101011011 i
b100100111101011011 -"
b0 {
b0 C"
b0 G"
b0 z
b0 B"
b0 L"
b0 y
b0 A"
b0 K"
b0 w
b0 5"
b0 ?"
b0 v
b0 4"
b0 >"
b0 ""
b0 P"
b0 !"
b0 O"
b1011 ~
b1011 N"
b101 n
1&
#370000
0&
#375000
b0 W
b0 Y"
1e
b0 f
b0 /"
b0 h
b0 ,"
b0 j
b0 ."
b0 i
b0 -"
b0 ~
b0 N"
b110 n
1&
#380000
0&
#385000
1&
#390000
0&
#395000
1&
#400000
0&
#405000
1&
#410000
0&
#415000
1&
#420000
0&
#425000
1&
#430000
0&
#435000
b11 .
b10 ,
b10 -
b110000 O
1&
#440000
0&
#445000
b111 !
b111 +"
0"
b10 |
1'
1&
#450000
0&
#455000
b1 m
b1 2"
b10 j
b10 ."
b1 V
b1 X"
b10 W
b10 Y"
0b
b11111111111 c
b11111111111 3"
0e
b1111111111 f
b1111111111 /"
b10 k
b10 0"
b111111111111 l
b111111111111 1"
b10 h
b10 ,"
b111111111111 i
b111111111111 -"
b11 !"
b11 O"
b10 ~
b10 N"
b110 !
b110 +"
1"
b10 n
b11 |
0'
1&
#460000
0&
#465000
0[
b10011111111000 X
b10011111111000 D"
b10011111111000 I"
0Z
b10011111111011 E"
b10011111111011 H"
b10011111111011 M"
b11111111111111111111111111111101 {
b11111111111111111111111111111101 C"
b11111111111111111111111111111101 G"
b101 z
b101 B"
b101 L"
b11111111111111111111111111111101 T
b11111111111111111111111111111101 V"
b101 U
b101 W"
b11111111111111111111111111111100 V
b11111111111111111111111111111100 X"
b110 W
b110 Y"
0_
b1011111110110 Y
b1011111110110 7"
b1011111110110 <"
0^
b1011111111010 8"
b1011111111010 ;"
b1011111111010 @"
1b
b0 c
b0 3"
1e
b0 f
b0 /"
b100 |
b11111111111 y
b11111111111 A"
b11111111111 K"
b11111111111111111111111111111100 x
b11111111111111111111111111111100 6"
b11111111111111111111111111111100 :"
b110 w
b110 5"
b110 ?"
b1111111111 v
b1111111111 4"
b1111111111 >"
b111 #"
b111 Q"
b110 ""
b110 P"
b0 k
b0 0"
b0 m
b0 2"
b0 l
b0 1"
b0 h
b0 ,"
b0 j
b0 ."
b0 i
b0 -"
b101 !"
b101 O"
b100 ~
b100 N"
b11 n
1&
#470000
0&
#475000
b0 T
b0 V"
b11111111111111111111111111111011 U
b11111111111111111111111111111011 W"
b1010 V
b1010 X"
b1000 W
b1000 Y"
0[
b11000111110101011 X
b11000111110101011 D"
b11000111110101011 I"
0Z
b11000111110110000 E"
b11000111110110000 H"
b11000111110110000 M"
0_
b1011111110110000 Y
b1011111110110000 7"
b1011111110110000 <"
0^
b1011111110110000 8"
b1011111110110000 ;"
b1011111110110000 @"
b101 |
b11111111111111111111111111111011 {
b11111111111111111111111111111011 C"
b11111111111111111111111111111011 G"
b1010 z
b1010 B"
b1010 L"
b10011111111000 y
b10011111111000 A"
b10011111111000 K"
b0 x
b0 6"
b0 :"
b1000 w
b1000 5"
b1000 ?"
b1011111110110 v
b1011111110110 4"
b1011111110110 >"
b0 #"
b0 Q"
b1010 ""
b1010 P"
b1001 !"
b1001 O"
b1000 ~
b1000 N"
b100 n
1&
#480000
0&
#485000
1_
b0 Y
b0 7"
b0 <"
b0 U
b0 W"
b0 V
b0 X"
b10 W
b10 Y"
0e
b10010011110101101100 f
b10010011110101101100 /"
1[
b0 X
b0 D"
b0 I"
1Z
b0 E"
b0 H"
b0 M"
1^
b0 8"
b0 ;"
b0 @"
b110 |
b11 h
b11 ,"
b10 j
b10 ."
b100100111101011011 i
b100100111101011011 -"
b0 {
b0 C"
b0 G"
b0 z
b0 B"
b0 L"
b0 y
b0 A"
b0 K"
b0 w
b0 5"
b0 ?"
b0 v
b0 4"
b0 >"
b0 ""
b0 P"
b0 !"
b0 O"
b1011 ~
b1011 N"
b101 n
1&
#490000
0&
#495000
b0 W
b0 Y"
1e
b0 f
b0 /"
b0 h
b0 ,"
b0 j
b0 ."
b0 i
b0 -"
b0 ~
b0 N"
b110 n
1&
#500000
0&
#505000
1&
#510000
0&
#515000
1&
#520000
0&
#525000
1&
#530000
0&
#535000
1&
#540000
0&
#545000
1&
#550000
0&
#555000
b100 .
b11 ,
b11 -
b110000 O
1&
#560000
0&
#565000
b111 !
b111 +"
0"
b10 |
1'
1&
#570000
0&
#575000
b1 m
b1 2"
b10 j
b10 ."
b1 V
b1 X"
b10 W
b10 Y"
0b
b11111111111 c
b11111111111 3"
0e
b1111111111 f
b1111111111 /"
b10 k
b10 0"
b111111111111 l
b111111111111 1"
b10 h
b10 ,"
b111111111111 i
b111111111111 -"
b11 !"
b11 O"
b10 ~
b10 N"
b110 !
b110 +"
1"
b10 n
b11 |
0'
1&
#580000
0&
#585000
0[
b10011111111000 X
b10011111111000 D"
b10011111111000 I"
0Z
b10011111111011 E"
b10011111111011 H"
b10011111111011 M"
b11111111111111111111111111111101 {
b11111111111111111111111111111101 C"
b11111111111111111111111111111101 G"
b101 z
b101 B"
b101 L"
b11111111111111111111111111111101 T
b11111111111111111111111111111101 V"
b101 U
b101 W"
b11111111111111111111111111111100 V
b11111111111111111111111111111100 X"
b110 W
b110 Y"
0_
b1011111110110 Y
b1011111110110 7"
b1011111110110 <"
0^
b1011111111010 8"
b1011111111010 ;"
b1011111111010 @"
1b
b0 c
b0 3"
1e
b0 f
b0 /"
b100 |
b11111111111 y
b11111111111 A"
b11111111111 K"
b11111111111111111111111111111100 x
b11111111111111111111111111111100 6"
b11111111111111111111111111111100 :"
b110 w
b110 5"
b110 ?"
b1111111111 v
b1111111111 4"
b1111111111 >"
b111 #"
b111 Q"
b110 ""
b110 P"
b0 k
b0 0"
b0 m
b0 2"
b0 l
b0 1"
b0 h
b0 ,"
b0 j
b0 ."
b0 i
b0 -"
b101 !"
b101 O"
b100 ~
b100 N"
b11 n
1&
#590000
0&
#595000
b0 T
b0 V"
b11111111111111111111111111111011 U
b11111111111111111111111111111011 W"
b1010 V
b1010 X"
b1000 W
b1000 Y"
0[
b11000111110101011 X
b11000111110101011 D"
b11000111110101011 I"
0Z
b11000111110110000 E"
b11000111110110000 H"
b11000111110110000 M"
0_
b1011111110110000 Y
b1011111110110000 7"
b1011111110110000 <"
0^
b1011111110110000 8"
b1011111110110000 ;"
b1011111110110000 @"
b101 |
b11111111111111111111111111111011 {
b11111111111111111111111111111011 C"
b11111111111111111111111111111011 G"
b1010 z
b1010 B"
b1010 L"
b10011111111000 y
b10011111111000 A"
b10011111111000 K"
b0 x
b0 6"
b0 :"
b1000 w
b1000 5"
b1000 ?"
b1011111110110 v
b1011111110110 4"
b1011111110110 >"
b0 #"
b0 Q"
b1010 ""
b1010 P"
b1001 !"
b1001 O"
b1000 ~
b1000 N"
b100 n
1&
#600000
0&
#605000
1_
b0 Y
b0 7"
b0 <"
b0 U
b0 W"
b0 V
b0 X"
b10 W
b10 Y"
0e
b10010011110101101100 f
b10010011110101101100 /"
1[
b0 X
b0 D"
b0 I"
1Z
b0 E"
b0 H"
b0 M"
1^
b0 8"
b0 ;"
b0 @"
b110 |
b11 h
b11 ,"
b10 j
b10 ."
b100100111101011011 i
b100100111101011011 -"
b0 {
b0 C"
b0 G"
b0 z
b0 B"
b0 L"
b0 y
b0 A"
b0 K"
b0 w
b0 5"
b0 ?"
b0 v
b0 4"
b0 >"
b0 ""
b0 P"
b0 !"
b0 O"
b1011 ~
b1011 N"
b101 n
1&
#610000
0&
#615000
b0 W
b0 Y"
1e
b0 f
b0 /"
b0 h
b0 ,"
b0 j
b0 ."
b0 i
b0 -"
b0 ~
b0 N"
b110 n
1&
#620000
0&
